…
``` r
cos_wide <- cos_tbl %>% 
  filter(cos_sim>=.6) %>% 
  pivot_wider(names_from = target, values_from = cos_sim) 

cos_wide <- cos_wide %>% 
  mutate(na_count = rowSums(is.na(.))) %>% 
  filter(na_count < 12) %>% 
  arrange(na_count)

cos_wide
```

    # A tibble: 494 × 15
       words  meeting   job interview  apply communicate career   task action  value
       <chr>    <dbl> <dbl>     <dbl>  <dbl>       <dbl>  <dbl>  <dbl>  <dbl>  <dbl>
     1 agree    0.691 0.680     0.708  0.681          NA NA     NA      0.755  0.611
     2 impor…  NA     0.691     0.623  0.602          NA  0.614  0.646  0.712  0.716
     3 help    NA     0.818     0.602  0.609          NA  0.649  0.665  0.638 NA    
     4 change  NA     0.774     0.616  0.686          NA  0.600 NA      0.750  0.618
     5 give    NA     0.773     0.680  0.676          NA  0.647 NA      0.725  0.623
     6 part    NA     0.737     0.624 NA              NA  0.613  0.629  0.712  0.602
     7 focus   NA     0.672     0.624 NA              NA  0.613  0.683  0.744  0.607
     8 ask      0.673 0.717     0.829  0.622          NA NA     NA      0.693 NA    
     9 begin    0.672 0.701     0.697 NA              NA  0.652 NA      0.667 NA    
    10 expect   0.672 0.780     0.661 NA              NA  0.634 NA      0.688 NA    
    # ℹ 484 more rows
    # ℹ 5 more variables: benchmark <dbl>, practice <dbl>, business <dbl>,
    #   consult <dbl>, na_count <dbl>
…
